…
    # Get data
    fromJSON(url) %>%
        as_tibble() }) %>%
    list_rbind()

# Show sample columns
data %>%
    select(PRSCRBR_NPI, Prscrbr_Type, Prscrbr_Gndr, Prscrbr_RUCA, 
           Antbtc_Tot_Clms, Tot_Benes, Bene_Avg_Risk_Scre, Bene_Avg_Age)

## # A tibble: 45 × 8
##    PRSCRBR_NPI Prscrbr_Type  Prscrbr_Gndr Prscrbr_RUCA Antbtc_Tot_Clms Tot_Benes
##    <chr>       <chr>         <chr>        <chr>        <chr>           <chr>    
##  1 1003000126  Internal Med… M            1            "59"            "358"    
##  2 1003000142  Anesthesiolo… M            1            ""              "299"    
##  3 1003000167  Dentist       M            2            "35"            "35"     
##  4 1003000175  Dentist       F            1            "15"            "11"     
##  5 1003000423  Obstetrics &… F            1            ""              "66"     
##  6 1003000126  Internal Med… M            1            "42"            "106"    
##  7 1003000142  Anesthesiolo… M            1            ""              "228"    
##  8 1003000167  Dentist       M            2            "46"            "43"     
##  9 1003000175  Dentist       F            1            "16"            ""       
## 10 1003000282  Nurse Practi… F            1            ""              ""       
## # ℹ 35 more rows
## # ℹ 2 more variables: Bene_Avg_Risk_Scre <chr>, Bene_Avg_Age <chr>
